"id","client_id","title","type","name","phpid","amount","ngoamount","actualamount","rate","category","location","country","currency","loanterms","loantermstype","startdate","loandate","loaninterest","use","description","pics","video","organization_id","postdate","public","fundingsource"
52,NULL,"Occasion Beads","Micro","Victoria Tetteh","M52",500,NULL,NULL,2.14,"Agriculture","Accra","Ghana","GHS",24,NULL,"2013-08-20","2013-08-20",20,"Victoria is seeking some help to buy more supplies so that she can expand her production and increase profit. ","Victoria Tetteh makes beads and other agricultural products for local and foreign markets. She is seeking a loan of $500.00 from PHP to help her expand her production. She has been a client of Kraban Support Foundation and has had several training sessions on simple record keeping and loan management from the organization.
      
    ","/imageupload/server/php/files/Victoria%20Tetteh%20%281%29.jpg","",8,"2013-09-30 09:16:28","Closed","PHP"
53,NULL,"ABC Hot Kenkey","Micro","Agnes","M53",500,NULL,NULL,2.14,"Food","Nkurankan","Ghana","GHS",24,NULL,"2013-08-20","2013-08-20",20,"Agnes is looking to feed more kids, but is need of your help in helping her buy more food and supplies to do so.","Agnes is a mother of four children who lives in Nkurankan, Ghana and has been a client of Kraban Support Foundation for years. She cooks kenkey and fried fish (a local meal) and sells it to school children in her town. She is seeking a loan of $500 from PHP to help her cook enough for sale. She has had several training sessions on simple record keeping and loan management from the Kraban Support Foundation.&nbsp;","/imageupload/server/php/files/Agnes%20%281%29.JPG","",8,"2013-09-30 09:16:28","no","PHP"
51,NULL,"Hope in God Food","Micro","madame Vida","M51",550,NULL,NULL,2.14,"Food","Accra","Ghana","GHS",24,NULL,"2013-08-20","2013-08-20",20,"Mademe Vida sells wakye to the villagers. She is looking to expand restaurant and is in need of funding to buy more ingredients ","Madame Vida sells wakye, a local meal prepared from special rice and beans and served with vegetable stew. She buys her rice and beans directly from the producers in bags. A lot of people enjoy her meals and she has a large number of people who buys from her. She wants to open a mini-restaurant where she can add other local dishes to her meals. she is seeking a loan of 550 to expand her business.&nbsp;","/imageupload/server/php/files/Vida%20%281%29.JPG","",8,"2013-09-30 09:16:28","Approved","PHP"
50,NULL,"God is Good Foodstuff","Micro","Sarah","M50",550,NULL,NULL,2.14,"Agriculture","Accra","Ghana","GHS",24,NULL,"2013-08-20","2013-08-20",20,"Sarah is looking for an opportunity to grow her plantain and cassava business. She also has some prior training in management","
      Sarah has been a client of Kraban Support Foundation for years now. She has had several training sessions on simple record keeping and loan management from the organization. She sells agricultural products such as cassava and plantain. She is seeking a loan of $550.00 from PHP to help her expand her business.    ","/imageupload/server/php/files/Sarah%20%281%29.JPG","",8,"2013-09-30 09:16:28","Approved","PHP"
40,NULL,"Tufi Medical Clinic Water Storage Tank","Project","Borna Joyce Lekong","P40",8000,NULL,NULL,6828,"N/A","Tufi","Papau New Guinea","GNF",24,NULL,"2013-08-20","2013-08-20",20,"To purchase a new water storage tank for Tufi Medical Clinic","<span id=\"docs-internal-guid--f2b1879-9d93-f8a5-47ee-b770d43d8438\"><span style=\"font-size: 15px; font-family: Arial; color: rgb(34, 34, 34); vertical-align: baseline; white-space: pre-wrap;\">The Tufi Medical clinic is in desperate need of a water tank and as you can see the existing one has a gaping one foot rusted hole in its side. The tank is beyond repair and Wayne Dicker Operations Manager of the nearby the Tufi lodge in Papua New Guinea. will arrange for the purchase, shipment and installation with the help of the native villagers. The clinic is staffed by several native nurses who are dedicated to serving the surrounding villages. We observed a number of cases including young girl who had tuberculosis and malaria which keeps her from keeping food down, thus she is extremely malnourished. Another woman could not produce any milk to feed her new born. Without a water supply it is extremely difficult especially during the day period of the year to provide quality care for these people. It is our prayer that enough donors will contribute to funding a new water tank. </span></span><br>","/imageupload/server/php/files/P1020141%20%283%29.JPG","",7,"2013-09-30 09:16:28","Approved","PHP"
47,NULL,"Reggie's Corner Shop","Micro","Regina Asare","M47",550,NULL,NULL,2.14,"Small Trade","Ghana","Africa","GHS",24,NULL,"2013-08-20","2013-08-20",20,"Regina plans to start her own boutique store where she can buy fabric to make clothing to sell","
      Regina's dream is to open a modern boutique in her community. She lives in Pokuase, Accra, Ghana. She has a shop, but she has no money to buy clothing to sell in her shop. She is seeking a loan of $550.00 from PHP to enable her to realize her dream. She has also been trained in the skills lending program of Kraban Support Foundation.
      
        ","/imageupload/server/php/files/Regina%20Asare%20%281%29.JPG","",8,"2013-09-30 16:02:36","Approved","PHP"
10,NULL,"Sports Facilities","Project","Kids Play Intl","p1",12000,NULL,NULL,2.14,"Service","Rwanda","Africa","GHS",24,NULL,"2013-08-20","2013-08-20",20,"Help Build or Refurbish sports facilities to enable kids to have a safe place to play Sports","
      
      <span style=\"color: rgb(85, 85, 85); font-family: 'Helvetica Neue', Helvetica, sans-serif; line-height: 21px;\">Through sports activity and interactive discussion, the&nbsp;</span><strong style=\"margin: 0px; padding: 0px; border: 0px; outline: 0px; vertical-align: baseline; color: rgb(85, 85, 85); font-family: 'Helvetica Neue', Helvetica, sans-serif; line-height: 21px;\"><em style=\"margin: 0px; padding: 0px; border: 0px; outline: 0px; vertical-align: baseline; background-color: transparent;\">LetÃ¢â‚¬â„¢s Play! community sports&nbsp;<a title=\"Click to Continue > by Supreme Savings\" id=\"_GPLITA_0\" href=\"http://www.kidsplayintl.org/programs/lets-play/#\" in_rurl=\"http://i.trkjmp.com/click?v=VVM6MzYzODY6MTEyNTplZHVjYXRpb24gcHJvZ3JhbTo2MTEwYWI2OTczOGJiOTcwNmJkMjA3NThkMGY5ZGY3Mjp6LTE0ODgtMTc0MjY0Ond3dy5raWRzcGxheWludGwub3JnOjQwMjU1OjRiMGU2NjIyMjI5NWYwYTNhNjdiMjEyNDA3ODMxNjU3\" in_hdr=\"\" style=\"margin: 0px; padding: 0px; border: 0px; outline: 0px; vertical-align: baseline; background-color: transparent; color: rgb(240, 95, 34); text-decoration: underline;\">education program</a></em></strong><span style=\"color: rgb(85, 85, 85); font-family: 'Helvetica Neue', Helvetica, sans-serif; line-height: 21px;\">&nbsp;teaches&nbsp;</span><strong style=\"margin: 0px; padding: 0px; border: 0px; outline: 0px; vertical-align: baseline; color: rgb(85, 85, 85); font-family: 'Helvetica Neue', Helvetica, sans-serif; line-height: 21px;\">boys and girls</strong><span style=\"color: rgb(85, 85, 85); font-family: 'Helvetica Neue', Helvetica, sans-serif; line-height: 21px;\">&nbsp;important life lessons and values embodied in the Olympic ideals, such as; teamwork, good sportsmanship, fair play, gender&nbsp;</span><a title=\"Click to Continue > by Supreme Savings\" id=\"_GPLITA_2\" href=\"http://www.kidsplayintl.org/programs/lets-play/#\" in_rurl=\"http://i.trkjmp.com/click?v=VVM6MjEzMTY6MTEyNTplcXVpdHk6N2IzNmExZDZhMjU0OTU2ZThlZTMwOGI4NWQ3Zjc0YWQ6ei0xNDg4LTE3NDI2NDp3d3cua2lkc3BsYXlpbnRsLm9yZzoxNTk3MDo1MjIxYTFmZDE2NDg0NWQ5MmIwNDljNjIwYjFmNjAxZQ\" style=\"margin: 0px; padding: 0px; border: 0px; outline: 0px; vertical-align: baseline; color: rgb(240, 95, 34); text-decoration: underline; font-family: 'Helvetica Neue', Helvetica, sans-serif; line-height: 21px;\">equity</a><span style=\"color: rgb(85, 85, 85); font-family: 'Helvetica Neue', Helvetica, sans-serif; line-height: 21px;\">, respect, and problem-solving. The objective is to build a sustainable community sports education program that will promote gender equity between both bous and girls. At the moment we are in need of building a facility to store sports equipment and a place for kids to play.</span>        ","/imageupload/server/php/files/kids_play%20%281%29.jpg","",7,"2013-09-30 09:16:28","Approved","PHP"
49,NULL,"Megyefo Tease Shop","Micro","Salomey","M49",550,NULL,NULL,2.14,"Small Trade","Ghana","Africa","GHS",24,NULL,"2013-08-20","2013-08-20",20,"Salomey is looking to buy more variety of products to be able to display in her store to increase sales.","
      Salomey has been a client of Kraban Support Foundation for years now. She has had several training sessions on simple record keeping and loan management from the organization. She sells provisions and other items in her shop. She is seeking a loan of $550.00 from PHP to enable her expand her sales.
      
        ","/imageupload/server/php/files/Salomey%20%281%29.JPG","",8,"2013-09-30 16:02:48","Approved","PHP"
48,NULL,"God is Great Shop","Micro","Rose D","M48",500,NULL,NULL,2.14,"Food","Ghana","Africa","GHS",24,NULL,"2013-08-20","2013-08-20",20,"Rose is need of funding to help her buy more ingredients to be able to cook more for more business ","Rose D. sells rice, groundnut (in tins of olonka) and cooking ingredients at the market. She is seeking a loan of $500.00 from PHP. She has had several training sessions on simple record keeping and loan management from the organization has been a client of Kraban Support Foundation for years now.
      
    ","/imageupload/server/php/files/Rose%20D.%20%281%29.JPG","",8,"2013-09-30 09:16:28","Approved","PHP"
77,NULL,"New Food","Micro","Peter Yim","M77",500,NULL,NULL,1,"Food","San Francisco","USA","USD",4,NULL,"2013-05-05","2013-05-05",4,"This is a test","Test for food","","",11,"2013-09-30 09:16:28","Re-Payment","PHP"
90,NULL,"test","Micro","test","",500,NULL,NULL,2.1675,"Food","test","test","GHS",8,NULL,"2013-09-19","2013-09-30",10,"test","","","",11,"2013-09-30 11:51:00","NONPHP","Kiva"
79,NULL,"New Shop","Micro","Peter Yim","M77",1000,NULL,NULL,1,"Small Trade","San Francisco","USA","USD",4,NULL,"2013-11-11","2013-09-21",4,"This is a test","Test for food","","",11,"2013-09-30 16:02:30","Re-Payment","PHP"
80,NULL,"Peter Food","Micro","Peter Yim","M80",500,NULL,NULL,2.14,"Agriculture","Accra","Ghana","GHS",24,NULL,"2013-09-20","2013-10-30",20,"Need to By Food","Peter is a new business owner that need a loan to by product<br><br>","/imageupload/server/php/files/images.jpg","pVSS1Vb7ARA",12,"2013-09-30 09:16:28","Closed","PHP"
54,NULL,"Aseda Shop","Micro","Auntie B","M54",550,NULL,NULL,2.14,"Food","Accra","Ghana","GHS",24,NULL,"2013-08-20","2013-08-20",20,"Auntie B is selling commodities to the community from a small table top, she is looking to expand and have a mini store front","Auntie B, as she is called in her community, sells a variety of food items from a table top shop. Her sales are expanding and she wishes to open a mini-supermarket where she can sell her goods. As a hardworking mother, she is seeking a loan of $550 from PHP to help expand her business and achieve her dream. She is a client of Kraban Support Foundation.&nbsp;","/imageupload/server/php/files/Auntie%20Beauty.JPG","",8,"2013-09-30 09:16:28","Approved","PHP"
46,NULL,"Delicious Porridge","Micro","Patience Odame","M46",500,NULL,NULL,2.14,"Food","Accra","Ghana","GHS",24,NULL,"2013-08-20","2013-08-20",20,"Patience Odame is looking to look for some extra funding to help her expand her porridge shop","
      Patience Odame is a 42year old woman with 3 children. She is a pioneering client of Kraban Support Foundation (KSF) and has gone through several loan management programs with them. She sells porridge and \"koose\" (made from beans) in a central community location, and her many customers start their day buying breakfast from her. They buy from her because they know the food is very tasty and is prepared with careful attention to hygiene. She requests a loan of $500.00 so she can buy more bags of beans and maize and serve more customers.
      
        ","/imageupload/server/php/files/Patience%20Odame%20%282%29.JPG","",8,"2013-09-30 09:16:28","Approved","PHP"
55,NULL,"Easy Wear Shop","Micro","Agnes Owusu","M55",550,NULL,NULL,2.14,"Small Trade","Accra","Ghana","GHS",24,NULL,"2013-08-20","2013-08-20",20,"Agnes takes in used shoes and refurbishes them for the community to have a nice pair of shoes.","
      Agnes(the seated lady) sells second-hand footwear in the market. She displays her goods on the gound in the market for sale. She used to receive the goods in several bales but due to the insecure nature of her items, she is not able to receive any more goods even though demand is high. She is in need of a $550 loan because she wants to open a shop where she can keep and sell her footwear. She has been a faithful client of Kraban Support Foundation.&nbsp;    ","/imageupload/server/php/files/Agnes%20Owusu.JPG","",8,"2013-09-30 16:02:42","Approved","PHP"
56,NULL,"Nyame Bekyere Charcoal","Micro","Auntie Lizzy","M56",550,NULL,NULL,2.14,"Service","Kasoah","Ghana","GHS",24,NULL,"2013-08-20","2013-08-20",20,"Elizabeth supply her town with charcoal so that families in the community are able to cook, and boil water.","
      Auntie Lizzy lives in Amanfrom, Kasoah, Ghana, Where she sells charcoal to her community. Since this is the main source of fuel in most homes, demand for her product is very high. She is seeking a loan of $550 from PHP to enable her to buy more bags of charcoal in order to serve her community. She has been trained by Kraban Support Foundation to adopt the teach lending tool in keeping simple records of her financial and business reports.&nbsp;    ","/imageupload/server/php/files/Elizabeth.JPG","",8,"2013-09-30 09:16:28","Approved","PHP"
57,NULL,"Rotala Farms","Micro","Akosua Takyiwa","M57",500,NULL,NULL,2.14,"Agriculture","Asuboi","Ghana","GHS",24,NULL,"2013-08-20","2013-08-20",20,"Akosua Takyiwa produces fruits and vegetables for sale on the local markets, and communities","Akosua Takiwa grows produces to supply local markets, educational institutions, and health center. The target clients includes children, patients of the local health centers, the 5 surrounding communities at large and 1 major urban center. She has received farm business skills training based on Kraban Support Foundation's Teach Lending Strategy. This methodology involves providing her the needed skills in farm business record keeping, daily sales, profits and working capital and farm produce marketing skills. She has also acquired training in fruit processing to make fruit juices to sell to school children to help improve their dietart intakes to enable them to be better in school.&nbsp;","/imageupload/server/php/files/Akosua%20Koley.jpg","",8,"2013-09-30 09:16:28","Approved","PHP"
58,NULL,"Special Bread","Micro","Agnes Nota","M58",600,NULL,NULL,2.14,"Food","Accra","Ghana","GHS",24,NULL,"2013-08-20","2013-08-20",20,"Agnes is looking for help to buy more supplies to make bread to sell to her community to raise enough money to send her children to school","Born in 1970, Agnes Nota is married and has four children, She has been very hard working from the day she received her first loan. She explained how good it is for a women to work for herself and care for her children, even if her work is just the buying and selling of bread. Her desire is to work for her children's education and pay for their apprenticeships so that they may learn a trade. Agnes decided to apply for a loan from Kraban Support Foundation due to her inability to get investment capital that could give her a higher income to meet her children's need and those of the family.&nbsp;","/imageupload/server/php/files/Agnes%20Nota.jpg","",8,"2013-09-30 09:16:28","Approved","PHP"
59,NULL,"Baby's African Beads ","Micro","Baby","M59",500,NULL,NULL,2.14,"Manufacturing","Accra","Ghana","GHS",24,NULL,"2013-08-20","2013-08-20",20,"Baby makes different type of beads for local and foreign markets. This is a hot commodity in the community that she lives in.","
      Baby makes beads for local and foreign markets. She is seeking a loan of $500 from PHP to help her expand her production. As a client of Kraban Support Foundation, she has learned several training sessions on simple record keeping and loan management from the organization.&nbsp;    ","/imageupload/server/php/files/Baby.jpg","",8,"2013-09-30 09:16:28","Approved","PHP"
60,NULL,"Becky's Drinking Spot","Micro","Rebecca","M60",500,NULL,NULL,2.14,"Service","accra","ghana","GHS",24,NULL,"2013-08-20","2013-08-20",20,"Rebecca is looking for a loan to help her keep a decent size inventory for her customers. ","Rebecca operates a drinking spot in her community. She sells a variety of alcohol and non alcoholic beverages ranging from local to foreign. Becky has participated in the Teach lending skills training of Kraban Support Foundation and therefore requires a loan amount of $500 from PHP to enable her to expand and improve upon her business by purchasing more drinks to sell to her customers.&nbsp;","/imageupload/server/php/files/Rebecca.jpg","",8,"2013-09-30 09:16:28","Approved","PHP"
61,NULL,"Alpha and Omega Shop","Micro","Philomena","M61",550,NULL,NULL,2.14,"Service","accra","ghana","GHS",24,NULL,"2013-08-20","2013-08-20",20,"Philomena sells sewing materials to seamstresses in her community","
      Philomena sells stationary and school supplies to her school children community. She is a client of Kraban Support Foundation and is seeking a loan of $550 so that she can buy more inventory to offer more to her customers and increase her profits.&nbsp;    ","/imageupload/server/php/files/Philomena.jpg","",8,"2013-09-30 09:16:28","Approved","PHP"
62,NULL,"Dwen Hwe Kan Smoked Fish","Micro","Cecilia ","M62",500,NULL,NULL,2.14,"Food","Accra","Ghana","GHS",24,NULL,"2013-08-20","2013-08-20",20,"Cecilia is in need of funding to buy and catch more fish so that she can provide her community with flavored smoked fish.","Cecilia has been a client of Kraban Support Foundation for over 5 year. She has had several training sessions on simple record keeping and loan management from the organization. She sells smoked dry fish in the market in which is the peoples choice of meet. She is seeking a loan of $500 from PHP to expand her production and sales.&nbsp;","/imageupload/server/php/files/Cecilia.JPG","",8,"2013-09-30 09:16:28","Approved","PHP"
63,NULL,"Abundant Crace Special Food ","Micro","Doris Ablorh","M63",500,NULL,NULL,2.14,"Food","Nkurakan","Ghana","GHS",24,NULL,"2013-08-20","2013-08-20",20,"Doris is in need of a loan to help her get more ingredients to make and sell kenkey, which is one of the community favorite meals.","<span style=\"color: rgb(0, 0, 0); font-family: arial, tahoma, sans-serif; line-height: normal; background-color: rgb(255, 255, 239);\"><font size=\"3\">Nkurankan is a large marking centre for the people of the Yilo Krobo District of Ghana. Doris Ablorh is a resident of Nkurankan and sells \"kenkey\", which is a fermented food prepared from corn dough. She is a client of Kraban Support Foundation and is seeking a PHP loan of $500.00 to help her improve her business and support her children education</font></span>
      
    ","/imageupload/server/php/files/Doris%20Ablorh.jpg","",8,"2013-09-30 09:16:28","Approved","PHP"
64,NULL,"Eye Adom Shop","Micro","Auntie Grace ","M64",500,NULL,NULL,2.14,"Food","Accra","Ghana","GHS",24,NULL,"2013-08-20","2013-08-20",20,"Auntie Grace is looking for a loan to help her supply more produce so that she have more of a variety of selections for her community.","Auntie Grace sells vegetables and other ingredients used in food preparation. She sells tomatoes, pepper, garden eggs, salt, onion and cooking oil from palm fruits. She is unable to provide as much as her community demand because of investment capital to buy the item from wholesalers.&nbsp;","/imageupload/server/php/files/Auntie%20Grace.JPG","",8,"2013-09-30 09:16:28","Approved","PHP"
65,NULL,"God's Grace Shop","Micro","Patience","M65",550,NULL,NULL,2.14,"Service","Accra","Ghana","GHS",24,NULL,"2013-08-20","2013-08-20",20,"Auntie Pat sells necklaces, earrings, body and hair pomades, artificial hair and so on. ","
      Auntie Pat lives in a community where women dominate and so daily demands for goods by individuals is very high. She is seeking a loan for $550 from PHP to purchase more products to meet her customers' demands.&nbsp;    ","/imageupload/server/php/files/Patience%20%283%29.JPG","",8,"2013-09-30 09:16:28","Approved","PHP"
66,NULL,"Special Wakye","Micro","Auntie Victoria","M66",500,NULL,NULL,2.14,"Food","accra","ghana","GHS",24,NULL,"2013-08-20","2013-08-20",20,"Victoria is in need of a loan to help her buy more ingredients and supplys to make Wakye, a special dish the community likes to enjoy.","Auntie Victoria (lady sitting) sells \"Wakye\", a meal enjoyed by the locals and prepared from special rice and beans. She is a client of Kraban support Foundation and has completed several training programs that teach good business practices. She is a good manager of loans and knows how to use it to her full advantage to grow her business.&nbsp;","/imageupload/server/php/files/Auntie%20Victoria.JPG","",8,"2013-09-30 10:01:01","Approved","PHP"
67,NULL,"Patty's Onions","Micro","Patience Badu","M67",500,NULL,NULL,2.14,"Agriculture","Accra","Ghana","GHS",24,NULL,"2013-08-20","2013-08-20",20,"Patience grows and sells onions to her local market. She is looking to expand her growing operation so that she can provide more onion to the community","
      Patience has been a client of Kraban Support Foundation and has had several training sessions on simple record keeping and loan management from the organization. She grows and sells onions to her local market and operates at her own local stand. She is seeking a loan of $500 from PHP to help her expand her sales and support the family.&nbsp;    ","/imageupload/server/php/files/Patience%20Badu.JPG","",8,"2013-09-30 09:16:28","Approved","PHP"
71,NULL,"Raymond Beetle Nut Business","Micro","Raymond Numdi","M71",4000,NULL,NULL,6828,"Agriculture","Kingaldurni","Papua New Guinea","GNF",24,NULL,"2013-08-20","2013-08-20",20,"Raymond seeks for a micro loan to help him start up a beetle nut retail business. With this loan it will help him bring in extra income to help send is kids to school.","
      
      <p dir=\"ltr\" style=\"margin-top: 0pt; margin-bottom: 0pt; line-height: 1.15;\"><span style=\"font-size: 15px; font-family: Arial; color: rgb(0, 0, 0); background-color: transparent; vertical-align: baseline; white-space: pre-wrap;\">Raymond Numdi speaks excellent English and at school was in the top 10% of his class in school. He is a member of the Moge Tribe and Agilka clan in Papua New Guinea located in The Kingaldurni village. He is discouraged as his family has little money and without some financial help he has little opportunity to start up a business and get ahead. Many of his classmates who did not perform as well have managed to succeed due to their family connections. A micro loan of $4000 dollars will enable him to startup a beetle nut business to buy and ship nuts from the coast of Papua New Guinea &nbsp;inland over one of the few gravel roads to Kingaldurni. Where there is a vibrant market for them. Bob evans, Director of PHP micro loans got to know Raymond while he was in Papua New Guinea and feels he is worthy of receiving a loan which will help increase his income so that he can pay for schooling of his four children.</span></p>
      
            ","/imageupload/server/php/files/Raymond%20%281%29.jpg","",9,"2013-09-30 09:16:28","Approved","PHP"
69,NULL,"Kareba Thresah Prenatal Care","Project","Wayne Dicker","P69",500,NULL,NULL,6828,"N/A","Port Morseby","Papua New Guinea","GNF",24,NULL,"2013-08-20","2013-08-20",20,"Karen is a young women who is about to bear her first child and is need of help to transport her to a major hospital where she will receive the utmost care for her and her baby's deliverance.","<span id=\"docs-internal-guid--f2b1879-9d85-d2b5-7dd8-d0c64cd95dbb\"><p dir=\"ltr\" style=\"line-height:1.15;margin-top:0pt;margin-bottom:0pt;\"><span style=\"font-size: 15px; font-family: Arial; color: rgb(0, 0, 0); background-color: transparent; vertical-align: baseline; white-space: pre-wrap;\">At the Tufi Medical Clinic Bob Evans, Volunteer Director of Micro Loans for PHP found Karen Kareba Thresah a young woman about to bear her first child. However, the baby is growing outside of her womb and unless she has an operation she will not survive giving birth to her child. She is in desperate need of transportation by boat to a major hospital in Port Morseby the capital of Papua New Guinea. Wayne Dicker the operations manager at the nearby Tufi lodge can and will arrange transport for her at a cost of $400. Wayne’s email address is </span><a href=\"mailto:manager@tufiresort.com\"><span style=\"font-size: 15px; font-family: Arial; color: rgb(17, 85, 204); background-color: transparent; text-decoration: underline; vertical-align: baseline; white-space: pre-wrap;\">manager@tufiresort.com</span></a><span style=\"font-size: 15px; font-family: Arial; color: rgb(0, 0, 0); background-color: transparent; vertical-align: baseline; white-space: pre-wrap;\"> for updates should you choose to help fund her need. </span></p><div><span style=\"font-size: 15px; font-family: Arial; color: rgb(0, 0, 0); background-color: transparent; vertical-align: baseline; white-space: pre-wrap;\"><br></span></div></span>
      
    ","/imageupload/server/php/files/Untitled-2.jpg","",7,"2013-09-30 09:16:28","Approved","PHP"
70,NULL,"Doreen Ega Health Care","Project","Wayne Dicker ","P70",500,NULL,NULL,6828,"N/A","Port Moresby ","Papua New Guinea","GNF",24,NULL,"2013-08-20","2013-08-20",20,"Teenage Doreen Ega is suffering from multiple sickness and is in need of immediate care so that she can have a second chance at her young age life.","<span id=\"docs-internal-guid--f2b1879-9d8d-fbfe-4152-3213abf73256\"><span style=\"font-size: 15px; font-family: Arial; color: rgb(0, 0, 0); background-color: transparent; vertical-align: baseline; white-space: pre-wrap;\">While in Papua New Guinea Bob Evans, Volunteer Director of Micro Loans for PHP visited the Tufi Medical Clinic and found it in desperate need of help. At the clinic there are two patients in critical need of transportation to a major hospital many miles away. Fourteen years old Doreen Ega is suffering from tuberculosis, and malaria which keeps her from keeping food down; thus, she also is extremely malnourished. If she is going to survive, she needs to be transported &nbsp;by boat to a major hospital in Port Moresby, the capital of Papua New Guinea. The manager at the nearby Tufi lodge Wayne Dicker will make the arrangements at a cost of $500. Wayne’s email address is </span><a href=\"mailto:manager@tufiresport.com\"><span style=\"font-size: 15px; font-family: Arial; color: rgb(17, 85, 204); background-color: transparent; text-decoration: underline; vertical-align: baseline; white-space: pre-wrap;\">manager@tufiresport.com</span></a><span style=\"font-size: 15px; font-family: Arial; color: rgb(0, 0, 0); background-color: transparent; vertical-align: baseline; white-space: pre-wrap;\"> for update information on Doreen’s condition should you help fund her need. </span></span>
      
    ","/imageupload/server/php/files/P1020116.jpg","",7,"2013-09-30 09:16:28","Approved","PHP"
89,NULL,"The Snack Shop","Micro","Ken","",500,NULL,NULL,2.1675,"Food","Kumasi","Ghana","GHS",8,NULL,"2013-08-01","2013-09-24",20,"Need More Supplies","Supplies Are needed
      
    ","/imageupload/server/php/files/Screen%20Shot%202013-09-24%20at%208.36.43%20AM.jpg","",11,"2013-10-06 09:31:07","Approved","PHP"
87,NULL,"TEST","Micro","TEST","",1000,NULL,NULL,2.1675,"Food","Accra","Ghana","GHS",24,NULL,"2013-08-01","2013-08-01",20,"","
      
    ","","",11,"2013-09-30 09:16:28","Approved","PHP"
96,NULL,"Fitness","Micro","Peter Yim","",1500,NULL,NULL,670.5,"Agriculture","Kigali","Rwanda","RWF",4,NULL,"2013-09-01","2013-10-01",20,"Sports","","","",11,"2013-10-01 03:50:52","NONPHP","Ecobank"
95,NULL,"New Water","Micro","Peter Yim","",1000,NULL,NULL,670.5,"Agriculture","Kigali","Rwanda","RWF",4,NULL,"2013-09-01","2013-09-30",20,"Used for new Water","","","",11,"2013-10-06 10:07:18","NONPHP","Ecobank"
100,10,"New Food","Micro","","",500,NULL,NULL,1,"Food","San Francisco","United States","USD",4,2,"2013-10-20","2013-10-20",10,"Food","","","",11,"2013-10-20 18:13:42","NONPHP","Kiva"
102,6,"","","","",148,100000,148,676.5,"","","","RWF",11,2,"2013-11-07","2013-11-11",1.6,"","
      
    ","","",11,"2013-11-06 01:26:21","pending","PHP"
103,4,"EWFWEF","Micro","","",148,100000,148,676.5,"Food","","","RWF",6,1,"2014-11-11","2014-11-11",0,"","
      
    ","","",11,"2013-11-06 01:47:03","pending","PHP"
